Michelle Gagliardo - Habbit
…
# Let's try to replicate the graph in the lecture slide. 
# Bar charts are good for visualizing the trend 
socviz::oecd_sum

# A tibble: 57 × 5
# Groups:   year [57]
    year other   usa  diff hi_lo
   <int> <dbl> <dbl> <dbl> <chr>
 1  1960  68.6  69.9 1.30  Below
 2  1961  69.2  70.4 1.20  Below
 3  1962  68.9  70.2 1.30  Below
 4  1963  69.1  70   0.900 Below
 5  1964  69.5  70.3 0.800 Below
 6  1965  69.6  70.3 0.700 Below
 7  1966  69.9  70.3 0.400 Below
 8  1967  70.1  70.7 0.600 Below
 9  1968  70.1  70.4 0.300 Below
10  1969  70.1  70.6 0.5   Below
# … with 47 more rows
…
# Lighter the cell, more frequent the pair of values are. 
# Try binwidth instead.

library(socviz)
socviz::gss_sm

# A tibble: 2,867 × 32
    year    id ballot   age childs sibs  degree race  sex   region incom…¹ relig
   <dbl> <dbl> <labe> <dbl>  <dbl> <lab> <fct>  <fct> <fct> <fct>  <fct>   <fct>
 1  2016     1 1         47      3 2     Bache… White Male  New E… $17000… None 
 2  2016     2 2         61      0 3     High … White Male  New E… $50000… None 
 3  2016     3 3         72      2 3     Bache… White Male  New E… $75000… Cath…
 4  2016     4 1         43      4 3     High … White Fema… New E… $17000… Cath…
 5  2016     5 3         55      2 2     Gradu… White Fema… New E… $17000… None 
 6  2016     6 2         53      2 2     Junio… White Fema… New E… $60000… None 
 7  2016     7 1         50      2 2     High … White Male  New E… $17000… None 
 8  2016     8 3         23      3 6     High … Other Fema… Middl… $30000… Cath…
 9  2016     9 1         45      3 5     High … Black Male  Middl… $60000… Prot…
10  2016    10 3         71      4 1     Junio… White Male  Middl… $60000… None 
# … with 2,857 more rows, 20 more variables: marital <fct>, padeg <fct>,
#   madeg <fct>, partyid <fct>, polviews <fct>, happy <fct>, partners <fct>,
#   grass <fct>, zodiac <fct>, pres12 <labelled>, wtssall <dbl>,
#   income_rc <fct>, agegrp <fct>, ageq <fct>, siblings <fct>, kids <fct>,
#   religion <fct>, bigregion <fct>, partners_rc <fct>, obama <dbl>, and
#   abbreviated variable name ¹​income16

gss_sm

# A tibble: 2,867 × 32
    year    id ballot   age childs sibs  degree race  sex   region incom…¹ relig
   <dbl> <dbl> <labe> <dbl>  <dbl> <lab> <fct>  <fct> <fct> <fct>  <fct>   <fct>
 1  2016     1 1         47      3 2     Bache… White Male  New E… $17000… None 
 2  2016     2 2         61      0 3     High … White Male  New E… $50000… None 
 3  2016     3 3         72      2 3     Bache… White Male  New E… $75000… Cath…
 4  2016     4 1         43      4 3     High … White Fema… New E… $17000… Cath…
 5  2016     5 3         55      2 2     Gradu… White Fema… New E… $17000… None 
 6  2016     6 2         53      2 2     Junio… White Fema… New E… $60000… None 
 7  2016     7 1         50      2 2     High … White Male  New E… $17000… None 
 8  2016     8 3         23      3 6     High … Other Fema… Middl… $30000… Cath…
 9  2016     9 1         45      3 5     High … Black Male  Middl… $60000… Prot…
10  2016    10 3         71      4 1     Junio… White Male  Middl… $60000… None 
# … with 2,857 more rows, 20 more variables: marital <fct>, padeg <fct>,
#   madeg <fct>, partyid <fct>, polviews <fct>, happy <fct>, partners <fct>,
#   grass <fct>, zodiac <fct>, pres12 <labelled>, wtssall <dbl>,
#   income_rc <fct>, agegrp <fct>, ageq <fct>, siblings <fct>, kids <fct>,
#   religion <fct>, bigregion <fct>, partners_rc <fct>, obama <dbl>, and
#   abbreviated variable name ¹​income16
…
# Use pipes to summarize data. Group each religion by each big region : 

library(socviz)
rel_by_region <- gss_sm %>% 
  group_by(bigregion, relig) %>% 
  summarize(N = n()) %>% 
  mutate(freq = N / sum(N), pct = round((freq*100), 0 ))
  
rel_by_region

# A tibble: 52 × 5
# Groups:   bigregion [4]
   bigregion relig                  N    freq   pct
   <fct>     <fct>              <int>   <dbl> <dbl>
 1 Northeast Protestant           158 0.324      32
 2 Northeast Catholic             162 0.332      33
 3 Northeast Jewish                27 0.0553      6
 4 Northeast None                 112 0.230      23
 5 Northeast Other                  8 0.0164      2
 6 Northeast Buddhism               3 0.00615     1
 7 Northeast Hinduism               6 0.0123      1
 8 Northeast Moslem/Islam           2 0.00410     0
 9 Northeast Orthodox-Christian     1 0.00205     0
10 Northeast Christian              7 0.0143      1
# … with 42 more rows
…
